Relative Abundances – Microbial Diversity from a Fossil Lagoon and comparative Interior vs Coastal Mangroves
…
# mean and sd Depth and Location
phy_ab_summary_stats <- phy_ab_long %>%
  group_by(Phylum, Depth, Location) %>%
  summarise(
    mean_abundance = mean(Abundance, na.rm = TRUE),
    sd_abundance = sd(Abundance, na.rm = TRUE),
    .groups = "drop"
  )

# show
phy_ab_summary_stats

# A tibble: 360 × 5
   Phylum          Depth Location  mean_abundance sd_abundance
   <chr>           <chr> <chr>              <dbl>        <dbl>
 1 Acidobacteriota 0-15  Fossil              6.96        0.808
 2 Acidobacteriota 0-15  Miguelito           5.27        1.75 
 3 Acidobacteriota 0-15  Reforma             5.59        1.35 
 4 Acidobacteriota 16-30 Fossil              7.17        0.870
 5 Acidobacteriota 16-30 Miguelito           6.48        0.845
 6 Acidobacteriota 16-30 Reforma             4.47        0.717
 7 Acidobacteriota 31-45 Fossil              6.65        1.01 
 8 Acidobacteriota 31-45 Miguelito           6.50        1.21 
 9 Acidobacteriota 31-45 Reforma             4.77        1.19 
10 Acidobacteriota 50-75 Fossil              8.87        1.87 
# ℹ 350 more rows

# Format table
phy_depth_table <- phy_ab_summary_stats %>%
  pivot_wider(
    names_from = Location,
    values_from = c(mean_abundance, sd_abundance),
    names_sep = "_"
  )

phy_depth_table

# A tibble: 120 × 8
   Phylum           Depth mean_abundance_Fossil mean_abundance_Miguelito
   <chr>            <chr>                 <dbl>                    <dbl>
 1 Acidobacteriota  0-15                 6.96                      5.27 
 2 Acidobacteriota  16-30                7.17                      6.48 
 3 Acidobacteriota  31-45                6.65                      6.50 
 4 Acidobacteriota  50-75                8.87                      6.12 
 5 Actinobacteriota 0-15                 3.75                      3.52 
 6 Actinobacteriota 16-30                2.84                      2.31 
 7 Actinobacteriota 31-45                3.73                      2.77 
 8 Actinobacteriota 50-75                3.05                      3.15 
 9 Armatimonadota   0-15                 0.0361                    0.193
10 Armatimonadota   16-30                0.231                     0.407
# ℹ 110 more rows
# ℹ 4 more variables: mean_abundance_Reforma <dbl>, sd_abundance_Fossil <dbl>,
#   sd_abundance_Miguelito <dbl>, sd_abundance_Reforma <dbl>
…
