Alpha Diversity – Microbial Diversity from a Fossil Lagoon and comparative Interior vs Coastal Mangroves
…
#Get means of Hill numbers
means <- meta_qs %>% group_by(Depth, Site, Location, qs) %>%
  summarise(means = mean(value, na.rm = TRUE),
            sd = sd(value, na.rm = TRUE),
            .groups = 'drop')

#save table
write.table(means, "Tables/interior_mangroves/Hill_means_sd.tsv", quote = FALSE, sep = "\t", row.names = TRUE, col.names=TRUE)

print(means)

# A tibble: 108 × 6
   Depth Site   Location       qs             means    sd
   <int> <chr>  <chr>          <chr>          <dbl> <dbl>
 1     1 Site_1 Miguelito Dike q0=Observed    2639  526. 
 2     1 Site_1 Miguelito Dike q0f=PD Faith    198.  37.3
 3     1 Site_1 Miguelito Dike q1=Exp Shannon  473. 153. 
 4     1 Site_1 Miguelito Dike q2=Inv Simpson  118.  77.4
 5     1 Site_2 Miguelito Dike q0=Observed    3142. 771. 
 6     1 Site_2 Miguelito Dike q0f=PD Faith    224.  40.4
 7     1 Site_2 Miguelito Dike q1=Exp Shannon  941. 339. 
 8     1 Site_2 Miguelito Dike q2=Inv Simpson  288. 116. 
 9     1 Site_3 Miguelito Dike q0=Observed    2771  781. 
10     1 Site_3 Miguelito Dike q0f=PD Faith    211.  41.9
# ℹ 98 more rows

#Get means of Hill numbers
hillmeansloc <- meta_qs %>% group_by(Depth, Location, qs) %>%
  summarise(means = mean(value, na.rm = TRUE),
            sd = sd(value, na.rm = TRUE),
            .groups = 'drop')
hillmeansloc

# A tibble: 48 × 5
   Depth Location           qs             means    sd
   <int> <chr>              <chr>          <dbl> <dbl>
 1     1 Fossil Lagoon      q0=Observed    2174. 319. 
 2     1 Fossil Lagoon      q0f=PD Faith    177.  18.0
 3     1 Fossil Lagoon      q1=Exp Shannon  625. 164. 
 4     1 Fossil Lagoon      q2=Inv Simpson  175.  58.9
 5     1 Miguelito Dike     q0=Observed    2850. 592. 
 6     1 Miguelito Dike     q0f=PD Faith    211.  33.0
 7     1 Miguelito Dike     q1=Exp Shannon  675. 333. 
 8     1 Miguelito Dike     q2=Inv Simpson  185. 116. 
 9     1 Reforma Waterfalls q0=Observed    2653. 517. 
10     1 Reforma Waterfalls q0f=PD Faith    195.  30.7
# ℹ 38 more rows
…
